<?xml version="1.0" encoding="utf-8"?>
<!-- Generator: Adobe Illustrator 19.0.0, SVG Export Plug-In . SVG Version: 6.00 Build 0)  -->
<svg version="1.1" id="Layer_1" xmlns="http://www.w3.org/2000/svg" xmlns:xlink="http://www.w3.org/1999/xlink" x="0px" y="0px"
	 viewBox="0 0 1469.3 227.1" style="enable-background:new 0 0 1469.3 227.1;" xml:space="preserve">
<style type="text/css">
	.st0{fill:#253B80;}
	.st1{fill:#0066B2;}
	.st2{fill:#36495D;}
	.st3{fill:#006FCF;}
	.st4{fill:#FFFFFF;}
	.st5{fill:#F9A533;}
	.st6{fill:#F16522;}
	.st7{fill:#E41B24;}
	.st8{fill:#F89E1C;}
	.st9{filter:url(#Adobe_OpacityMaskFilter);}
	.st10{mask:url(#bluebox-55x54-b_1_);fill:#F7F7F7;}
	.st11{filter:url(#Adobe_OpacityMaskFilter_1_);}
	.st12{mask:url(#bluebox-55x54-d_1_);fill:#006FCF;}
</style>
<path id="XMLID_2_" class="st0" d="M292.6,227.1H29.9C13.4,227.1,0,213.7,0,197.2V29.9C0,13.4,13.4,0,29.9,0h262.8
	c16.5,0,29.9,13.4,29.9,29.9v167.3C322.5,213.7,309.1,227.1,292.6,227.1z"/>
<path id="XMLID_4_" class="st1" d="M675,227.1H412.2c-16.5,0-29.9-13.4-29.9-29.9V29.9c0-16.5,13.4-29.9,29.9-29.9H675
	c16.5,0,29.9,13.4,29.9,29.9v167.3C704.8,213.7,691.5,227.1,675,227.1z"/>
<path id="XMLID_5_" class="st2" d="M1057.3,227.1H794.5c-16.5,0-29.9-13.4-29.9-29.9V29.9C764.6,13.4,778,0,794.5,0h262.8
	c16.5,0,29.9,13.4,29.9,29.9v167.3C1087.2,213.7,1073.8,227.1,1057.3,227.1z"/>
<path id="XMLID_6_" class="st3" d="M1439.6,227.1h-262.8c-16.5,0-29.9-13.4-29.9-29.9V29.9c0-16.5,13.4-29.9,29.9-29.9h262.8
	c16.5,0,29.9,13.4,29.9,29.9v167.3C1469.5,213.7,1456.1,227.1,1439.6,227.1z"/>
<g id="XMLID_1_">
	<path id="XMLID_57_" class="st4" d="M77.4,99.9c-1,6.3-5.8,6.3-10.4,6.3h-2.7l1.9-11.8c0.1-0.7,0.7-1.2,1.4-1.2h1.2
		c3.2,0,6.2,0,7.7,1.8C77.5,96.1,77.8,97.7,77.4,99.9z M75.4,83.5H57.8c-1.2,0-2.2,0.9-2.4,2.1l-7.1,45.1c-0.1,0.9,0.5,1.7,1.4,1.7
		h8.4c1.2,0,2.2-0.9,2.4-2.1l1.9-12.2c0.2-1.2,1.2-2.1,2.4-2.1h5.6c11.6,0,18.3-5.6,20-16.7c0.8-4.9,0-8.7-2.2-11.3
		C85.7,85,81.3,83.5,75.4,83.5z"/>
	<path id="XMLID_54_" class="st4" d="M116.2,116.1c-0.8,4.8-4.6,8-9.5,8c-2.4,0-4.4-0.8-5.6-2.3c-1.2-1.5-1.7-3.6-1.3-5.9
		c0.8-4.8,4.6-8.1,9.4-8.1c2.4,0,4.3,0.8,5.6,2.3C116.1,111.7,116.6,113.8,116.2,116.1z M127.9,99.7h-8.4c-0.7,0-1.3,0.5-1.4,1.2
		l-0.4,2.4l-0.6-0.9c-1.8-2.6-5.9-3.5-9.9-3.5c-9.3,0-17.2,7-18.8,16.9c-0.8,4.9,0.3,9.6,3.1,12.9c2.6,3,6.2,4.3,10.6,4.3
		c7.5,0,11.6-4.8,11.6-4.8l-0.4,2.3c-0.1,0.9,0.5,1.7,1.4,1.7h7.6c1.2,0,2.2-0.9,2.4-2.1l4.5-28.8
		C129.5,100.5,128.8,99.7,127.9,99.7z"/>
	<path id="XMLID_33_" class="st4" d="M172.8,99.7h-8.5c-0.8,0-1.6,0.4-2,1.1L150.6,118l-4.9-16.5c-0.3-1-1.3-1.7-2.3-1.7H135
		c-1,0-1.7,1-1.4,1.9l9.3,27.3l-8.8,12.4c-0.7,1,0,2.3,1.2,2.3h8.4c0.8,0,1.6-0.4,2-1L174,102C174.6,101,173.9,99.7,172.8,99.7z"/>
	<path id="XMLID_38_" class="st4" d="M202.8,99.9c-1,6.3-5.8,6.3-10.4,6.3h-2.6l1.9-11.8c0.1-0.7,0.7-1.2,1.4-1.2h1.2
		c3.2,0,6.2,0,7.7,1.8C202.8,96.1,203.1,97.7,202.8,99.9z M200.7,83.5h-17.6c-1.2,0-2.2,0.9-2.4,2.1l-7.1,45.1
		c-0.1,0.9,0.5,1.7,1.4,1.7h9c0.8,0,1.6-0.6,1.7-1.4l2-12.8c0.2-1.2,1.2-2.1,2.4-2.1h5.6c11.6,0,18.3-5.6,20-16.7
		c0.8-4.9,0-8.7-2.2-11.3C211.1,85,206.6,83.5,200.7,83.5z"/>
	<path id="XMLID_21_" class="st4" d="M241.5,116.1c-0.8,4.8-4.6,8-9.5,8c-2.4,0-4.4-0.8-5.6-2.3c-1.2-1.5-1.7-3.6-1.3-5.9
		c0.8-4.8,4.6-8.1,9.4-8.1c2.4,0,4.3,0.8,5.6,2.3C241.4,111.7,241.9,113.8,241.5,116.1z M253.3,99.7h-8.4c-0.7,0-1.3,0.5-1.4,1.2
		l-0.4,2.4l-0.6-0.9c-1.8-2.6-5.9-3.5-9.9-3.5c-9.3,0-17.2,7-18.8,16.9c-0.8,4.9,0.3,9.6,3.1,12.9c2.6,3,6.2,4.3,10.6,4.3
		c7.5,0,11.6-4.8,11.6-4.8l-0.4,2.3c-0.1,0.9,0.5,1.7,1.4,1.7h7.6c1.2,0,2.2-0.9,2.4-2.1l4.6-28.8
		C254.9,100.5,254.2,99.7,253.3,99.7z"/>
	<path id="XMLID_28_" class="st4" d="M263.2,84.7l-7.2,45.9c-0.1,0.9,0.5,1.7,1.4,1.7h7.3c1.2,0,2.2-0.9,2.4-2.1l7.1-45.1
		c0.1-0.9-0.5-1.7-1.4-1.7h-8.1C263.9,83.5,263.3,84,263.2,84.7z"/>
</g>
<g id="XMLID_7_">
	<g id="XMLID_9_">
		<polygon id="XMLID_19_" class="st4" points="529.9,149.1 513.1,149.1 523.6,84.6 540.4,84.6 		"/>
		<path id="XMLID_18_" class="st4" d="M499,84.6l-16,44.4l-1.9-9.6l0,0l-5.7-29c0,0-0.7-5.8-8-5.8H441l-0.3,1.1
			c0,0,8.1,1.7,17.6,7.4l14.6,56.1h17.5L517,84.6H499z"/>
		<path id="XMLID_11_" class="st4" d="M631.1,149.1h15.4l-13.4-64.5h-13.5c-6.2,0-7.8,4.8-7.8,4.8l-25.1,59.7h17.5l3.5-9.6h21.4
			L631.1,149.1z M612.6,126.3l8.8-24.1l5,24.1H612.6z"/>
		<path id="XMLID_10_" class="st4" d="M588.1,100.1l2.4-13.9c0,0-7.4-2.8-15.1-2.8c-8.3,0-28.1,3.6-28.1,21.4
			c0,16.7,23.2,16.9,23.2,25.6s-20.8,7.2-27.7,1.7l-2.5,14.5c0,0,7.5,3.6,19,3.6c11.5,0,28.8-5.9,28.8-22.1
			c0-16.8-23.4-18.3-23.4-25.6C564.5,95.2,580.9,96.2,588.1,100.1z"/>
	</g>
	<path id="XMLID_8_" class="st5" d="M481.1,119.4l-5.7-29c0,0-0.7-5.8-8-5.8H441l-0.3,1.1c0,0,12.7,2.6,24.9,12.5
		C477.2,107.7,481.1,119.4,481.1,119.4z"/>
</g>
<g id="XMLID_3_">
	<rect id="XMLID_41_" x="898.8" y="64.9" class="st6" width="54.2" height="97.4"/>
	<path id="XMLID_40_" class="st7" d="M902.2,113.6c0-19.8,9.3-37.3,23.7-48.7c-10.5-8.3-23.8-13.2-38.3-13.2
		c-34.2,0-61.9,27.7-61.9,61.9c0,34.2,27.7,61.9,61.9,61.9c14.4,0,27.7-4.9,38.3-13.2C911.5,150.9,902.2,133.3,902.2,113.6"/>
	<path id="XMLID_20_" class="st8" d="M1026.1,113.6c0,34.2-27.7,61.9-61.9,61.9c-14.4,0-27.7-4.9-38.3-13.2
		c14.4-11.3,23.6-28.9,23.6-48.7s-9.2-37.3-23.6-48.7c10.5-8.3,23.8-13.2,38.3-13.2C998.4,51.6,1026.1,79.4,1026.1,113.6
		 M1020.2,151.9v-2h0.8v-0.4h-2v0.4h0.8v2H1020.2z M1024.2,151.9v-2.4h-0.6l-0.7,1.7l-0.7-1.7h-0.6v2.4h0.4v-1.8l0.7,1.6h0.5
		l0.7-1.6v1.8H1024.2z"/>
</g>
<g id="XMLID_63_">
	<g id="XMLID_64_" transform="translate(0 16.675)">
		<defs>
			<filter id="Adobe_OpacityMaskFilter" filterUnits="userSpaceOnUse" x="1147" y="37.2" width="322.3" height="132">
				<feColorMatrix  type="matrix" values="1 0 0 0 0  0 1 0 0 0  0 0 1 0 0  0 0 0 1 0"/>
			</filter>
		</defs>
		<mask maskUnits="userSpaceOnUse" x="1147" y="37.2" width="322.3" height="132" id="bluebox-55x54-b_1_">
			<g id="XMLID_96_" class="st9">
				<polygon id="bluebox-55x54-a_1_" class="st4" points="1147,37.2 1147,169.1 1469.3,169.1 1469.3,37.2 				"/>
			</g>
		</mask>
		<path id="XMLID_90_" class="st10" d="M1429.8,93.5h24.2V37.2h-25.8v9l-5.7-9h-22.5v11.4l-5-11.4h-37.2c-1.8,0-3.5,0.1-5.2,0.4
			c-1.4,0.2-2.8,0.5-4.2,1c-1.1,0.3-2.1,0.7-3.1,1.2c-1.2,0.5-2.3,1.2-3.3,1.9v-1.9v-2.5h-121.4L1217,47l-3.4-9.8h-28.3v11.5
			l-5.1-11.5h-23.1L1147,61.2v27.2v5h16.3l3-8.1h5.7l3.1,8.1h125.6v-8.2l6.3,8.2h34.7v-1.8v-2.3c0.9,0.6,1.8,1.1,2.8,1.5
			c0.9,0.4,1.9,0.8,2.9,1.1c1.2,0.4,2.4,0.7,3.7,0.9c2,0.4,4,0.5,5.9,0.5h20.8l3-8.1h5.7l3.1,8.1h34.8v-8.4L1429.8,93.5z
			 M1469.3,165.7v-52.8h-2.8h-197.1l-5.1,7.2l-5-7.2h-57.5v56.3h57.3l5-7.3l5.2,7.3h35.9V157h-0.4c4.5,0,8.5-0.8,12.1-2.1v14.3h25
			V161l6.3,8.2h108.5c3.1,0,6-0.5,8.7-1.5C1466.6,167.1,1468,166.5,1469.3,165.7z"/>
		<g id="XMLID_77_" transform="translate(10.3 14.223)">
			<defs>
				<filter id="Adobe_OpacityMaskFilter_1_" filterUnits="userSpaceOnUse" x="1200.2" y="107.8" width="258.9" height="38">
					<feColorMatrix  type="matrix" values="1 0 0 0 0  0 1 0 0 0  0 0 1 0 0  0 0 0 1 0"/>
				</filter>
			</defs>
			<mask maskUnits="userSpaceOnUse" x="1200.2" y="107.8" width="258.9" height="38" id="bluebox-55x54-d_1_">
				<g id="XMLID_52_" class="st11">
					<polygon id="bluebox-55x54-c_1_" class="st4" points="1459.2,145.8 1459.2,107.8 1200.2,107.8 1200.2,145.8 					"/>
				</g>
			</mask>
			<path id="XMLID_78_" class="st12" d="M1446.4,138.2h-19.5v7.6h19.2c8.2,0,13.1-5,13.1-12.1c0-6.8-4.4-10.7-11.8-10.7h-8.8
				c-2.2,0-3.7-1.4-3.7-3.6c0-2.3,1.5-3.8,3.7-3.8h16.5l3.4-7.7h-19.6c-8.2,0-13.1,5-13.1,11.8c0,7,4.6,11,11.8,11h8.7
				c2.2,0,3.7,1.4,3.7,3.7C1450.1,136.6,1448.6,138.2,1446.4,138.2z M1410.3,138.2h-19.5v7.6h19.2c8.2,0,13.1-5,13.1-12.1
				c0-6.8-4.4-10.7-11.8-10.7h-8.8c-2.2,0-3.7-1.4-3.7-3.6c0-2.3,1.5-3.8,3.7-3.8h16.5l3.4-7.7h-19.6c-8.2,0-13.1,5-13.1,11.8
				c0,7,4.6,11,11.8,11h8.7c2.2,0,3.7,1.4,3.7,3.7C1414,136.6,1412.4,138.2,1410.3,138.2z M1385.3,115.5v-7.7h-30.4v38h30.4v-7.7
				H1364v-7.6h20.8v-7.6H1364v-7.4H1385.3z M1334.4,115.5c3.3,0,5,2.1,5,4.7c0,2.6-1.7,4.7-5,4.7h-10.7v-9.4H1334.4z M1323.7,132.1
				h4.3l11.3,13.7h11.3l-12.6-14c6.5-1.2,10.3-5.9,10.3-11.9c0-7.1-5-12-13.1-12h-20.6v38h9.1V132.1z M1300.5,120.5
				c0,2.6-1.6,4.7-4.8,4.7h-10.9v-9.3h10.9C1298.8,115.9,1300.5,117.9,1300.5,120.5z M1275.6,107.8v38h9.1v-12.5h11.4
				c8.3,0,13.5-5.4,13.5-12.7c0-7.5-5-12.7-13.1-12.7H1275.6z M1262.2,145.8h11.4l-15.2-19.1l15.1-18.8h-11.1l-9.3,12l-9.3-12h-11.4
				l15.2,19l-15.1,19h11.1l9.3-12.2L1262.2,145.8z M1230.6,115.5v-7.7h-30.4v38h30.4v-7.7h-21.3v-7.6h20.8v-7.6h-20.8v-7.4H1230.6z"
				/>
		</g>
		<path id="XMLID_65_" class="st3" d="M1417.1,61.6l-0.1-3.1l1.9,3.1l14.5,22.7h10.6v-38h-8.9v22l0.1,2.8l-1.7-2.8l-14.2-22h-11.2
			v38h8.9V61.6z M1380.8,60.5l2.8-7.1l2.8,7.1l3.4,8.4h-12.2L1380.8,60.5z M1395.9,84.3h10.2l-16.2-38h-12l-16.3,38h9.7l3.2-8.1
			h18.1L1395.9,84.3z M1356.1,84.3h0.5l3.7-8.1h-2.8c-6.2,0-9.9-3.9-9.9-10.6V65c0-6,3.3-10.5,9.8-10.5h9.9v-8.2h-10.6
			c-11.7,0-18.1,7.9-18.1,18.7v0.7C1338.6,76.9,1345.2,84.2,1356.1,84.3z M1323.7,84.3h9.1V67.6V46.3h-9.1v21V84.3z M1304.6,54.1
			c3.3,0,5,2.1,5,4.7c0,2.6-1.7,4.7-5,4.7h-10.7v-9.4H1304.6z M1293.9,70.6h4.3l11.3,13.7h11.3l-12.6-14c6.5-1.2,10.3-5.9,10.3-11.9
			c0-7.1-5-12-13.1-12h-20.6v38h9.1V70.6z M1278.1,54v-7.7h-30.4v38h30.4v-7.8h-21.3V69h20.8v-7.6h-20.8V54H1278.1z M1202.6,58.4
			l-0.2-10.3l10.5,36.2h8.2l10.5-36l-0.2,10v26h8.8v-38h-16.1l-7.2,26.9l-7.3-26.9h-16v38h8.8V58.4z M1166.3,60.5l2.8-7.1l2.8,7.1
			l3.4,8.4H1163L1166.3,60.5z M1181.4,84.3h10.3l-16.2-38h-12l-16.3,38h9.7l3.2-8.1h18.1L1181.4,84.3z"/>
	</g>
</g>
</svg>
