<?xml version="1.0" encoding="utf-8"?>
<!-- Generator: Adobe Illustrator 19.0.0, SVG Export Plug-In . SVG Version: 6.00 Build 0)  -->
<svg version="1.1" id="Layer_1" xmlns="http://www.w3.org/2000/svg" xmlns:xlink="http://www.w3.org/1999/xlink" x="0px" y="0px"
	 viewBox="4 -2 24 24" style="enable-background:new 4 -2 24 24;" xml:space="preserve">
<style type="text/css">
	.st0{fill:#1A1A1A;}
</style>
<path class="st0" d="M12,10c0,0.3,0.1,0.5,0.3,0.7l6,6c0.4,0.4,1,0.4,1.4,0s0.4-1,0-1.4L14.4,10l5.3-5.3c0.4-0.4,0.4-1,0-1.4
	s-1-0.4-1.4,0l-6,6C12.1,9.5,12,9.7,12,10z"/>
</svg>
